…
#### Topic intrusion test

For example, `abstracts_stm` was generated with the corpus
`abstracts$text`

``` r
library(tibble)
abstracts
#> # A tibble: 2,500 x 1
#>    text                                                                         
#>    <chr>                                                                        
#>  1 This study explores the benefits and risks featured in medical tourism broke…
#>  2 This article puts forth the argument that with the transfer of stock trading…
#>  3 The purpose of this study was to evaluate the effect the visual fidelity of …
#>  4 Among the many health issues relevant to college students, overconsumption o…
#>  5 This address, delivered at ICA's 50th anniversary conference, calls on the a…
#>  6 The Internet has often been used to reach men who have sex with men (MSMs) i…
#>  7 This article argues that the literature describing the internet revolution i…
#>  8 This research study examined Bud Goodall's online health narrative as a case…
#>  9 Information technology and new media allow for collecting and sharing person…
#> 10 Using a national, telephone survey of 1,762 adolescents aged 12-17 years, th…
#> # … with 2,490 more rows
```
…
## About Biterm Topic Model

Please refer to the vignette about BTM.

## Validating Dictionary-based Methods

### Creating gold standard

`trump2k` is a dataset of 2,000 tweets from @realdonaldtrump.

``` r
tibble(text = trump2k)
#> # A tibble: 2,000 x 1
#>    text                                                                         
#>    <chr>                                                                        
#>  1 "In just out book, Secret Service Agent Gary Byrne doesn't believe that Croo…
#>  2 "Hillary Clinton has announced that she is letting her husband out to campai…
#>  3 "\"@TheBrodyFile: Always great to visit with @TheBrodyFile one-on-one with \…
#>  4 "Explain to @brithume and @megynkelly, who know nothing, that I will beat Hi…
#>  5 "Nobody beats me on National Security. https://t.co/sCrj4Ha1I5"              
#>  6 "\"@realbill2016: @realDonaldTrump @Brainykid2010 @shl Trump leading LA Time…
#>  7 "\"@teapartynews: Trump Wins Tea Party Group's 'Nashville Straw Poll' - News…
#>  8 "Big Republican Dinner tonight at Mar-a-Lago in Palm Beach. I will be there!"
#>  9 ".@HillaryClinton loves to lie. America has had enough of the CLINTON'S! It …
#> 10 "\"@brianstoya: @realDonaldTrump For POTUS #2016\""                          
#> # … with 1,990 more rows
```
…
