…
After the coding, you can look at the model precision by printing the oolong test.

``` r
oolong_test
```

### Topic intrusion test

For example, `newsgroup_stm` was generated with the corpus `newsgroup5$text`

``` r
library(tibble)
newsgroup5
#> # A tibble: 4,182 x 3
#>    text                                                  title            ntoken
#>    <chr>                                                 <chr>             <int>
#>  1 "\nI agree.  So why is Cylink the only (and expensiv… sci.crypt           302
#>  2 "[This is a co-authored report from two of us who we… talk.politics.g…   2900
#>  3 "\njubilee, Pope >Leo the 12th had a medallion cast … soc.religion.ch…    463
#>  4 "\n\nAnd the 'Turkish Karabag' is next. As for 'Cypr… talk.politics.m…    929
#>  5 "The subject says what I would like to do, here are … comp.sys.mac.ha…    218
#>  6 "\n\n\n\nAre you related to 'Arromdian' of ASALA/SDP… talk.politics.m…    920
#>  7 "\n#Rick Anderson replied to my letter with...\n#\n#… talk.religion.m…   1760
#>  8 "                                      ^^^^^^\nNo ar… rec.sport.baseb…    302
#>  9 "\nWhy thanks for your reply to my post.  By the way… talk.politics.g…    158
#> 10 " >When some types of client windows are displayed, … comp.windows.x      158
#> # … with 4,172 more rows
```
…
